{
    "appName": "boou",
    "roleName": "pinpointLambdaRole523ae3cd",
    "cloudWatchPolicyName": "cloudWatchPolicy523ae3cd",
    "pinpointPolicyName": "pinpointPolicy523ae3cd",
    "authPolicyName": "pinpoint_amplify_523ae3cd",
    "unauthPolicyName": "pinpoint_amplify_523ae3cd",
    "authRoleName": {
        "Ref": "AuthRoleName"
    },
    "unauthRoleName": {
        "Ref": "UnauthRoleName"
    },
    "authRoleArn": {
        "Fn::GetAtt": [
            "AuthRole",
            "Arn"
        ]
    }
}